…
``` r
pd_session()
Sys.getenv("POPDATA_COOKIE")
## [1] "PHPSESSID=xxxxxxxxxxxxxxxxxxxxxx;"
```

### Read data directly from POPDATA

Now we can use `popdata`, `pd_asr`, `pd_mysr` or `pd_pf` to get the data
from POPDATA.

``` r
pd_asr(table = "refugees", year = 2019)
## # A tibble: 6,214 x 30
##    asylum origin yearStartTotal yearStartTotalU… groupRecognition
##    <chr>  <chr>           <dbl>            <dbl>            <dbl>
##  1 AFG    IRN                34               34                0
##  2 AFG    IRQ                 1                1                0
##  3 AFG    PAK             72194            72194                0
##  4 ALB    ARE                 3                3                0
##  5 ALB    BUL                 1                1                0
##  6 ALB    CHI                12               12                0
##  7 ALB    COD                 3                3                0
##  8 ALB    FGU                 0                0                0
##  9 ALB    GAZ                14               14                0
## 10 ALB    IND                 0                0                0
## # … with 6,204 more rows, and 25 more variables:
## #   temporaryProtection <dbl>, individualRecognition <dbl>,
## #   resettlementArrivals <dbl>, births <dbl>,
## #   increasesOther <dbl>, increasesTotal <dbl>,
## #   decreasesVoluntaryRepatriationTotal <dbl>,
## #   decreasesVoluntaryRepatriationTotalUnhcrAssisted <dbl>,
## #   decreasesResettlementTotal <dbl>,
## #   decreasesResettlementTotalUnhcrAssisted <dbl>,
## #   cessation <dbl>, naturalization <dbl>, deaths <dbl>,
…
